

INIT
ORI  $10,$0,1     # R10 = R0 | 1 = 1
SW $10 , $0, 0  # ecrire 1@(0)
SW $10 , $0, 4  # ecrire 4@(0)
ADDI $1, $0, 8 # 8-->R1
ORI  $11,$0,10    # R11 = 10

BOUCLE
LW $2, $1, -8
LW $3, $1, -4
ADD $4, $2, $3
SW $4, $1, 0
ADDI $1, $1, 4
ADDI $11,$11,-1    # R3 = R3 + (-1)
BNEZ $11, boucle
FIN
J





